Grouping and Chaining with dplyr | Data Science with R
…
| To avoid confusion and keep things running smoothly, let's remove the original

| dataframe from your workspace with rm("mydf").

rm("mydf")

| All that hard work is paying off!

|===========                                                                     |  13%

| Print cran to the console.

cran

# A tibble: 225,468 x 11

       X date     time       size r_version r_arch r_os    package   version country ip_id

 1     1 2014-07~ 00:54:~   80589 3.1.0     x86_64 mingw32 htmltools 0.2.4   US          1

 2     2 2014-07~ 00:59:~  321767 3.1.0     x86_64 mingw32 tseries   0.10-32 US          2

 3     3 2014-07~ 00:47:~  748063 3.1.0     x86_64 linux-~ party     1.0-15  US          3

 4     4 2014-07~ 00:48:~  606104 3.1.0     x86_64 linux-~ Hmisc     3.14-4  US          3

 5     5 2014-07~ 00:46:~   79825 3.0.2     x86_64 linux-~ digest    0.6.4   CA          4

 6     6 2014-07~ 00:48:~   77681 3.1.0     x86_64 linux-~ randomFo~ 4.6-7   US          3

 7     7 2014-07~ 00:48:~  393754 3.1.0     x86_64 linux-~ plyr      1.8.1   US          3

 8     8 2014-07~ 00:47:~   28216 3.0.2     x86_64 linux-~ whisker   0.3-2   US          5

 9     9 2014-07~ 00:54:~    5928 NA        NA     NA      Rcpp      0.10.4  CN          6

10    10 2014-07~ 00:15:~ 2206029 3.0.2     x86_64 linux-~ hflights  0.1     US          7

# ... with 225,458 more rows

| You nailed it! Good job!

|============                                                                    |  15%

| Our first goal is to group the data by package name. Bring up the help file for

| group_by().

group_by(cran,package)

# A tibble: 225,468 x 11

# Groups:   package [6,023]

       X date     time       size r_version r_arch r_os    package   version country ip_id

 1     1 2014-07~ 00:54:~   80589 3.1.0     x86_64 mingw32 htmltools 0.2.4   US          1

 2     2 2014-07~ 00:59:~  321767 3.1.0     x86_64 mingw32 tseries   0.10-32 US          2

 3     3 2014-07~ 00:47:~  748063 3.1.0     x86_64 linux-~ party     1.0-15  US          3

 4     4 2014-07~ 00:48:~  606104 3.1.0     x86_64 linux-~ Hmisc     3.14-4  US          3

 5     5 2014-07~ 00:46:~   79825 3.0.2     x86_64 linux-~ digest    0.6.4   CA          4

 6     6 2014-07~ 00:48:~   77681 3.1.0     x86_64 linux-~ randomFo~ 4.6-7   US          3

 7     7 2014-07~ 00:48:~  393754 3.1.0     x86_64 linux-~ plyr      1.8.1   US          3

 8     8 2014-07~ 00:47:~   28216 3.0.2     x86_64 linux-~ whisker   0.3-2   US          5

 9     9 2014-07~ 00:54:~    5928 NA        NA     NA      Rcpp      0.10.4  CN          6

10    10 2014-07~ 00:15:~ 2206029 3.0.2     x86_64 linux-~ hflights  0.1     US          7

# ... with 225,458 more rows

| Keep trying! Or, type info() for more options.

| Use ?group_by to bring up the documentation.

cran %>% group_by(package)

# A tibble: 225,468 x 11

# Groups:   package [6,023]

       X date     time       size r_version r_arch r_os    package   version country ip_id

 1     1 2014-07~ 00:54:~   80589 3.1.0     x86_64 mingw32 htmltools 0.2.4   US          1

 2     2 2014-07~ 00:59:~  321767 3.1.0     x86_64 mingw32 tseries   0.10-32 US          2

 3     3 2014-07~ 00:47:~  748063 3.1.0     x86_64 linux-~ party     1.0-15  US          3

 4     4 2014-07~ 00:48:~  606104 3.1.0     x86_64 linux-~ Hmisc     3.14-4  US          3

 5     5 2014-07~ 00:46:~   79825 3.0.2     x86_64 linux-~ digest    0.6.4   CA          4

 6     6 2014-07~ 00:48:~   77681 3.1.0     x86_64 linux-~ randomFo~ 4.6-7   US          3

 7     7 2014-07~ 00:48:~  393754 3.1.0     x86_64 linux-~ plyr      1.8.1   US          3

 8     8 2014-07~ 00:47:~   28216 3.0.2     x86_64 linux-~ whisker   0.3-2   US          5

 9     9 2014-07~ 00:54:~    5928 NA        NA     NA      Rcpp      0.10.4  CN          6

10    10 2014-07~ 00:15:~ 2206029 3.0.2     x86_64 linux-~ hflights  0.1     US          7

# ... with 225,458 more rows
…
| options.

| Store the result of group_by(cran, package) in a new object called by_package.

by_package<-group_by(cran,package)

| You got it right!

|===============                                                                 |  19%

| Let's take a look at by_package. Print it to the console.

by_package

# A tibble: 225,468 x 11

# Groups:   package [6,023]

       X date     time       size r_version r_arch r_os    package   version country ip_id

 1     1 2014-07~ 00:54:~   80589 3.1.0     x86_64 mingw32 htmltools 0.2.4   US          1

 2     2 2014-07~ 00:59:~  321767 3.1.0     x86_64 mingw32 tseries   0.10-32 US          2

 3     3 2014-07~ 00:47:~  748063 3.1.0     x86_64 linux-~ party     1.0-15  US          3

 4     4 2014-07~ 00:48:~  606104 3.1.0     x86_64 linux-~ Hmisc     3.14-4  US          3

 5     5 2014-07~ 00:46:~   79825 3.0.2     x86_64 linux-~ digest    0.6.4   CA          4

 6     6 2014-07~ 00:48:~   77681 3.1.0     x86_64 linux-~ randomFo~ 4.6-7   US          3

 7     7 2014-07~ 00:48:~  393754 3.1.0     x86_64 linux-~ plyr      1.8.1   US          3

 8     8 2014-07~ 00:47:~   28216 3.0.2     x86_64 linux-~ whisker   0.3-2   US          5

 9     9 2014-07~ 00:54:~    5928 NA        NA     NA      Rcpp      0.10.4  CN          6

10    10 2014-07~ 00:15:~ 2206029 3.0.2     x86_64 linux-~ hflights  0.1     US          7

# ... with 225,458 more rows
…
| about what that number is, but wouldn't it be so much more interesting to look at the

| mean download size for each unique package?

...

|====================                                                            |  25%

| That's exactly what you'll get if you use summarize() to apply mean(size) to the

| grouped data in by_package. Give it a shot.

summarise(by_package,mean(size))

# A tibble: 6,023 x 2

   package     mean(size)

 1 A3                62195.

 2 abc             4826665

 3 abcdeFBA         455980.

 4 ABCExtremes       22904.

 5 ABCoptim          17807.

 6 ABCp2             30473.

 7 abctools        2589394

 8 abd              453631.

 9 abf2              35693.

10 abind             32939.

# ... with 6,013 more rows
…
submit()

| Sourcing your script...

| You are doing so well!

|=========================                                                       |  31%

| Print the resulting tbl, pack_sum, to the console to examine its contents.

pack_sum

# A tibble: 6,023 x 5

   package     count unique countries avg_bytes

 1 A3             25     24        10    62195.

 2 abc            29     25        16  4826665

 3 abcdeFBA       15     15         9   455980.

 4 ABCExtremes    18     17         9    22904.

 5 ABCoptim       16     15         9    17807.

 6 ABCp2          18     17        10    30473.

 7 abctools       19     19        11  2589394

 8 abd            17     16        10   453631.

 9 abf2           13     13         9    35693.

10 abind         396    365        50    32939.

# ... with 6,013 more rows
…
| filter() to select all rows from pack_sum for which 'count' is strictly greater (>)

| than 679. Store the result in a new object called top_counts.

top_counts<-filter(pack_sum,count>679)

| You are doing so well!

|==================================                                              |  42%

| Let's take a look at top_counts. Print it to the console.

top_counts

# A tibble: 61 x 5

   package    count unique countries avg_bytes

 1 bitops      1549   1408        76    28715.

 2 car         1008    837        64  1229122.

 3 caTools      812    699        64   176589.

 4 colorspace  1683   1433        80   357411.

 5 data.table   680    564        59  1252721.

 6 DBI         2599    492        48   206933.

 7 devtools     769    560        55   212933.

 8 dichromat   1486   1257        74   134732.

 9 digest      2210   1894        83   120549.

10 doSNOW       740     75        24     8364.

# ... with 51 more rows
…
# Here's the new bit, but using the same approach we've
# been using this whole time.

top_countries <- filter(pack_sum, countries > 60)
result1 <- arrange(top_countries, desc(countries), avg_bytes)

# Print the results to the console.
print(result1)

submit()

| Sourcing your script...

# A tibble: 46 x 5

   package      count unique countries avg_bytes

 1 Rcpp          3195   2044        84  2512100.

 2 digest        2210   1894        83   120549.

 3 stringr       2267   1948        82    65277.

 4 plyr          2908   1754        81   799123.

 5 ggplot2       4602   1680        81  2427716.

 6 colorspace    1683   1433        80   357411.

 7 RColorBrewer  1890   1584        79    22764.

 8 scales        1726   1408        77   126819.

 9 bitops        1549   1408        76    28715.

10 reshape2      2032   1652        76   330128.

# ... with 36 more rows
…
print(result2)

submit()

| Sourcing your script...

# A tibble: 46 x 5

   package      count unique countries avg_bytes

 1 Rcpp          3195   2044        84  2512100.

 2 digest        2210   1894        83   120549.

 3 stringr       2267   1948        82    65277.

 4 plyr          2908   1754        81   799123.

 5 ggplot2       4602   1680        81  2427716.

 6 colorspace    1683   1433        80   357411.

 7 RColorBrewer  1890   1584        79    22764.

 8 scales        1726   1408        77   126819.

 9 bitops        1549   1408        76    28715.

10 reshape2      2032   1652        76   330128.

# ... with 36 more rows
…
# Print result to console
print(result3)

submit()

| Sourcing your script...

# A tibble: 46 x 5

   package      count unique countries avg_bytes

 1 Rcpp          3195   2044        84  2512100.

 2 digest        2210   1894        83   120549.

 3 stringr       2267   1948        82    65277.

 4 plyr          2908   1754        81   799123.

 5 ggplot2       4602   1680        81  2427716.

 6 colorspace    1683   1433        80   357411.

 7 RColorBrewer  1890   1584        79    22764.

 8 scales        1726   1408        77   126819.

 9 bitops        1549   1408        76    28715.

10 reshape2      2032   1652        76   330128.

# ... with 36 more rows
…
cran %>%
  select(ip_id,country,package,size) %>%
    print

submit()

| Sourcing your script...

# A tibble: 225,468 x 4

   ip_id country package         size

 1     1 US      htmltools      80589

 2     2 US      tseries       321767

 3     3 US      party         748063

 4     3 US      Hmisc         606104

 5     4 CA      digest         79825

 6     3 US      randomForest   77681

 7     3 US      plyr          393754

 8     5 US      whisker        28216

 9     6 CN      Rcpp            5928

10     7 US      hflights     2206029

# ... with 225,458 more rows
…
cran %>%
  select(ip_id, country, package, size) %>%
  mutate(size_mb=size/2^20) %>%
  print

submit()

| Sourcing your script...

# A tibble: 225,468 x 5

   ip_id country package         size size_mb

 1     1 US      htmltools      80589 0.0769

 2     2 US      tseries       321767 0.307

 3     3 US      party         748063 0.713

 4     3 US      Hmisc         606104 0.578

 5     4 CA      digest         79825 0.0761

 6     3 US      randomForest   77681 0.0741

 7     3 US      plyr          393754 0.376

 8     5 US      whisker        28216 0.0269

 9     6 CN      Rcpp            5928 0.00565

10     7 US      hflights     2206029 2.10

# ... with 225,458 more rows
…
cran %>%
  select(ip_id, country, package, size) %>%
  mutate(size_mb = size / 2^20) %>%
  # Your call to filter() goes here
  filter(size_mb<=0.5) %>%
  print

submit()

| Sourcing your script...

# A tibble: 142,021 x 5

   ip_id country package        size size_mb

 1     1 US      htmltools     80589 0.0769

 2     2 US      tseries      321767 0.307

 3     4 CA      digest        79825 0.0761

 4     3 US      randomForest  77681 0.0741

 5     3 US      plyr         393754 0.376

 6     5 US      whisker       28216 0.0269

 7     6 CN      Rcpp           5928 0.00565

 8    13 DE      ipred        186685 0.178

 9    14 US      mnormt        36204 0.0345

10    16 US      iterators    289972 0.277

# ... with 142,011 more rows
…
cran %>%
  select(ip_id, country, package, size) %>%
  mutate(size_mb = size / 2^20) %>%
  filter(size_mb <= 0.5) %>%
  # Your call to arrange() goes here
  arrange(desc(size_mb)) %>%
  print

submit()

| Sourcing your script...

# A tibble: 142,021 x 5

   ip_id country package                 size size_mb

 1 11034 DE      phia                  524232   0.500

 2  9643 US      tis                   524152   0.500

 3  1542 IN      RcppSMC               524060   0.500

 4 12354 US      lessR                 523916   0.500

 5 12072 US      colorspace            523880   0.500

 6  2514 KR      depmixS4              523863   0.500

 7  1111 US      depmixS4              523858   0.500

 8  8865 CR      depmixS4              523858   0.500

 9  5908 CN      RcmdrPlugin.KMggplot2 523852   0.500

10 12354 US      RcmdrPlugin.KMggplot2 523852   0.500

# ... with 142,011 more rows
…
