Manipulating Data with dplyr | Data Science with R
…
rm("mydf")

| You are quite good my friend!

|===============                                                                 |  18%

| From ?tbl_df, "The main advantage to using a tbl_df over a regular data frame is the

| printing." Let's see what is meant by this. Type cran to print our tbl_df to the

| console.

cran

# A tibble: 225,468 x 11

       X date     time       size r_version r_arch r_os    package   version country ip_id

 1     1 2014-07~ 00:54:~   80589 3.1.0     x86_64 mingw32 htmltools 0.2.4   US          1

 2     2 2014-07~ 00:59:~  321767 3.1.0     x86_64 mingw32 tseries   0.10-32 US          2

 3     3 2014-07~ 00:47:~  748063 3.1.0     x86_64 linux-~ party     1.0-15  US          3

 4     4 2014-07~ 00:48:~  606104 3.1.0     x86_64 linux-~ Hmisc     3.14-4  US          3

 5     5 2014-07~ 00:46:~   79825 3.0.2     x86_64 linux-~ digest    0.6.4   CA          4

 6     6 2014-07~ 00:48:~   77681 3.1.0     x86_64 linux-~ randomFo~ 4.6-7   US          3

 7     7 2014-07~ 00:48:~  393754 3.1.0     x86_64 linux-~ plyr      1.8.1   US          3

 8     8 2014-07~ 00:47:~   28216 3.0.2     x86_64 linux-~ whisker   0.3-2   US          5

 9     9 2014-07~ 00:54:~    5928 NA        NA     NA      Rcpp      0.10.4  CN          6

10    10 2014-07~ 00:15:~ 2206029 3.0.2     x86_64 linux-~ hflights  0.1     US          7

# ... with 225,458 more rows
…
| Help files for the other functions are accessible in the same way.

...

|=======================                                                         |  28%

| As may often be the case, particularly with larger datasets, we are only interested in

| some of the variables. Use select(cran, ip_id, package, country) to select only the

| ip_id, package, and country variables from the cran dataset.

select(cran, ip_id, package, country)

# A tibble: 225,468 x 3

   ip_id package      country

 1     1 htmltools    US

 2     2 tseries      US

 3     3 party        US

 4     3 Hmisc        US

 5     4 digest       CA

 6     3 randomForest US

 7     3 plyr         US

 8     5 whisker      US

 9     6 Rcpp         CN

10     7 hflights     US

# ... with 225,458 more rows
…
 [1]  5  6  7  8  9 10 11 12 13 14 15 16 17 18 19 20

| All that practice is paying off!

|============================                                                    |  35%

| Normally, this notation is reserved for numbers, but select() allows you to specify a

| sequence of columns this way, which can save a bunch of typing. Use select(cran,

| r_arch:country) to select all columns starting from r_arch and ending with country.

select(cran,r_arch:country)

# A tibble: 225,468 x 5

   r_arch r_os      package      version country

 1 x86_64 mingw32   htmltools    0.2.4   US

 2 x86_64 mingw32   tseries      0.10-32 US

 3 x86_64 linux-gnu party        1.0-15  US

 4 x86_64 linux-gnu Hmisc        3.14-4  US

 5 x86_64 linux-gnu digest       0.6.4   CA

 6 x86_64 linux-gnu randomForest 4.6-7   US

 7 x86_64 linux-gnu plyr         1.8.1   US

 8 x86_64 linux-gnu whisker      0.3-2   US

 9 NA     NA        Rcpp         0.10.4  CN

10 x86_64 linux-gnu hflights     0.1     US

# ... with 225,458 more rows

| You are quite good my friend!

|=============================                                                   |  37%

| We can also select the same columns in reverse order. Give it a try.

select(cran,country:r_arch)

# A tibble: 225,468 x 5

   country version package      r_os      r_arch

 1 US      0.2.4   htmltools    mingw32   x86_64

 2 US      0.10-32 tseries      mingw32   x86_64

 3 US      1.0-15  party        linux-gnu x86_64

 4 US      3.14-4  Hmisc        linux-gnu x86_64

 5 CA      0.6.4   digest       linux-gnu x86_64

 6 US      4.6-7   randomForest linux-gnu x86_64

 7 US      1.8.1   plyr         linux-gnu x86_64

 8 US      0.3-2   whisker      linux-gnu x86_64

 9 CN      0.10.4  Rcpp         NA        NA

10 US      0.1     hflights     linux-gnu x86_64

# ... with 225,458 more rows

| You're the best!

|===============================                                                 |  38%

| Print the entire dataset again, just to remind yourself of what it looks like. You can

| do this at anytime during the lesson.

cran

# A tibble: 225,468 x 11

       X date     time       size r_version r_arch r_os    package   version country ip_id

 1     1 2014-07~ 00:54:~   80589 3.1.0     x86_64 mingw32 htmltools 0.2.4   US          1

 2     2 2014-07~ 00:59:~  321767 3.1.0     x86_64 mingw32 tseries   0.10-32 US          2

 3     3 2014-07~ 00:47:~  748063 3.1.0     x86_64 linux-~ party     1.0-15  US          3

 4     4 2014-07~ 00:48:~  606104 3.1.0     x86_64 linux-~ Hmisc     3.14-4  US          3

 5     5 2014-07~ 00:46:~   79825 3.0.2     x86_64 linux-~ digest    0.6.4   CA          4

 6     6 2014-07~ 00:48:~   77681 3.1.0     x86_64 linux-~ randomFo~ 4.6-7   US          3

 7     7 2014-07~ 00:48:~  393754 3.1.0     x86_64 linux-~ plyr      1.8.1   US          3

 8     8 2014-07~ 00:47:~   28216 3.0.2     x86_64 linux-~ whisker   0.3-2   US          5

 9     9 2014-07~ 00:54:~    5928 NA        NA     NA      Rcpp      0.10.4  CN          6

10    10 2014-07~ 00:15:~ 2206029 3.0.2     x86_64 linux-~ hflights  0.1     US          7

# ... with 225,458 more rows

| Keep working like that and you'll get there!

|================================                                                |  40%

| Instead of specifying the columns we want to keep, we can also specify the columns we

| want to throw away. To see how this works, do select(cran, -time) to omit the time

| column.

select(cran,-time)

# A tibble: 225,468 x 10

       X date          size r_version r_arch r_os      package      version country ip_id

 1     1 2014-07-08   80589 3.1.0     x86_64 mingw32   htmltools    0.2.4   US          1

 2     2 2014-07-08  321767 3.1.0     x86_64 mingw32   tseries      0.10-32 US          2

 3     3 2014-07-08  748063 3.1.0     x86_64 linux-gnu party        1.0-15  US          3

 4     4 2014-07-08  606104 3.1.0     x86_64 linux-gnu Hmisc        3.14-4  US          3

 5     5 2014-07-08   79825 3.0.2     x86_64 linux-gnu digest       0.6.4   CA          4

 6     6 2014-07-08   77681 3.1.0     x86_64 linux-gnu randomForest 4.6-7   US          3

 7     7 2014-07-08  393754 3.1.0     x86_64 linux-gnu plyr         1.8.1   US          3

 8     8 2014-07-08   28216 3.0.2     x86_64 linux-gnu whisker      0.3-2   US          5

 9     9 2014-07-08    5928 NA        NA     NA        Rcpp         0.10.4  CN          6

10    10 2014-07-08 2206029 3.0.2     x86_64 linux-gnu hflights     0.1     US          7

# ... with 225,458 more rows
…
| then apply the negative sign to the whole thing.

-(5:20)

 [1]  -5  -6  -7  -8  -9 -10 -11 -12 -13 -14 -15 -16 -17 -18 -19 -20

| You're the best!

|====================================                                            |  45%

| Use this knowledge to omit all columns X:size using select().

select(cran,-(X:size))

# A tibble: 225,468 x 7

   r_version r_arch r_os      package      version country ip_id

 1 3.1.0     x86_64 mingw32   htmltools    0.2.4   US          1

 2 3.1.0     x86_64 mingw32   tseries      0.10-32 US          2

 3 3.1.0     x86_64 linux-gnu party        1.0-15  US          3

 4 3.1.0     x86_64 linux-gnu Hmisc        3.14-4  US          3

 5 3.0.2     x86_64 linux-gnu digest       0.6.4   CA          4

 6 3.1.0     x86_64 linux-gnu randomForest 4.6-7   US          3

 7 3.1.0     x86_64 linux-gnu plyr         1.8.1   US          3

 8 3.0.2     x86_64 linux-gnu whisker      0.3-2   US          5

 9 NA        NA     NA        Rcpp         0.10.4  CN          6

10 3.0.2     x86_64 linux-gnu hflights     0.1     US          7

# ... with 225,458 more rows
…
| question is "How do I select a subset of rows?" That's where the filter() function

| comes in.

...

|=======================================                                         |  48%

| Use filter(cran, package == "swirl") to select all rows for which the package variable

| is equal to "swirl". Be sure to use two equals signs side-by-side!

filter(cran,package=="swirl")

# A tibble: 820 x 11

       X date      time      size r_version r_arch r_os      package version country ip_id

 1    27 2014-07-~ 00:17:~ 105350 3.0.2     x86_64 mingw32   swirl   2.2.9   US         20

 2   156 2014-07-~ 00:22:~  41261 3.1.0     x86_64 linux-gnu swirl   2.2.9   US         66

 3   358 2014-07-~ 00:13:~ 105335 2.15.2    x86_64 mingw32   swirl   2.2.9   CA        115

 4   593 2014-07-~ 00:59:~ 105465 3.1.0     x86_64 darwin13~ swirl   2.2.9   MX        162

 5   831 2014-07-~ 00:55:~ 105335 3.0.3     x86_64 mingw32   swirl   2.2.9   US         57

 6   997 2014-07-~ 00:33:~  41261 3.1.0     x86_64 mingw32   swirl   2.2.9   US         70

 7  1023 2014-07-~ 00:35:~ 106393 3.1.0     x86_64 mingw32   swirl   2.2.9   BR        248

 8  1144 2014-07-~ 00:00:~ 106534 3.0.2     x86_64 linux-gnu swirl   2.2.9   US        261

 9  1402 2014-07-~ 00:41:~  41261 3.1.0     i386   mingw32   swirl   2.2.9   US        234

10  1424 2014-07-~ 00:44:~ 106393 3.1.0     x86_64 linux-gnu swirl   2.2.9   US        301

# ... with 810 more rows
…
| filter() then returns only the rows of cran corresponding to the TRUEs.

...

|===========================================                                     |  53%

| You can specify as many conditions as you want, separated by commas. For example

| filter(cran, r_version == "3.1.1", country == "US") will return all rows of cran

| corresponding to downloads from users in the US running R version 3.1.1. Try it out.

filter(cran, r_version == "3.1.1", country == "US")

# A tibble: 1,588 x 11

       X date     time      size r_version r_arch r_os     package   version country ip_id

 1  2216 2014-07~ 00:48:~ 3.85e5 3.1.1     x86_64 darwin1~ colorspa~ 1.2-4   US        191

 2 17332 2014-07~ 03:39:~ 1.97e5 3.1.1     x86_64 darwin1~ httr      0.3     US       1704

 3 17465 2014-07~ 03:25:~ 2.33e4 3.1.1     x86_64 darwin1~ snow      0.3-13  US         62

 4 18844 2014-07~ 03:59:~ 1.91e5 3.1.1     x86_64 darwin1~ maxLik    1.2-0   US       1533

 5 30182 2014-07~ 04:13:~ 7.77e4 3.1.1     i386   mingw32  randomFo~ 4.6-7   US        646

 6 30193 2014-07~ 04:06:~ 2.35e6 3.1.1     i386   mingw32  ggplot2   1.0.0   US          8

 7 30195 2014-07~ 04:07:~ 2.99e5 3.1.1     i386   mingw32  fExtremes 3010.81 US       2010

 8 30217 2014-07~ 04:32:~ 5.68e5 3.1.1     i386   mingw32  rJava     0.9-6   US         98

 9 30245 2014-07~ 04:10:~ 5.27e5 3.1.1     i386   mingw32  LPCM      0.44-8  US          8

10 30354 2014-07~ 04:32:~ 1.76e6 3.1.1     i386   mingw32  mgcv      1.8-1   US       2122

# ... with 1,578 more rows
…
?Comparison

| You are quite good my friend!

|=============================================                                   |  57%

| Edit your previous call to filter() to instead return rows corresponding to users in

| "IN" (India) running an R version that is less than or equal to "3.0.2". The up arrow

| on your keyboard may come in handy here. Don't forget your double quotes!

filter(cran, r_version <= "3.0.2", country == "IN")

# A tibble: 4,139 x 11

       X date     time       size r_version r_arch r_os    package   version country ip_id

 1   348 2014-07~ 00:44:~  1.02e7 3.0.0     x86_64 mingw32 BH        1.54.0~ IN        112

 2  9990 2014-07~ 02:11:~  3.97e5 3.0.2     x86_64 linux-~ equateIRT 1.1     IN       1054

 3  9991 2014-07~ 02:11:~  1.19e5 3.0.2     x86_64 linux-~ ggdendro  0.1-14  IN       1054

 4  9992 2014-07~ 02:11:~  8.18e4 3.0.2     x86_64 linux-~ dfcrm     0.2-2   IN       1054

 5 10022 2014-07~ 02:19:~  1.56e6 2.15.0    x86_64 mingw32 RcppArma~ 0.4.32~ IN       1060

 6 10023 2014-07~ 02:19:~  1.18e6 2.15.1    i686   linux-~ forecast  5.4     IN       1060

 7 10189 2014-07~ 02:38:~  9.09e5 3.0.2     x86_64 linux-~ editrules 2.7.2   IN       1054

 8 10199 2014-07~ 02:38:~  1.78e5 3.0.2     x86_64 linux-~ energy    1.6.1   IN       1054

 9 10200 2014-07~ 02:38:~  5.18e4 3.0.2     x86_64 linux-~ ENmisc    1.2-7   IN       1054

10 10201 2014-07~ 02:38:~  6.52e4 3.0.2     x86_64 linux-~ entropy   1.2.0   IN       1054

# ... with 4,129 more rows
…
| condition were TRUE. We can also request rows for which EITHER one condition OR another

| condition are TRUE. For example, filter(cran, country == "US" | country == "IN") will

| gives us all rows for which the country variable equals either "US" or "IN". Give it a

| go.

filter(cran, country == "US | country == "IN")

Error: unexpected symbol in "filter(cran, country == "US | country == "IN"

filter(cran, country == "US" | country == "IN")

# A tibble: 95,283 x 11

       X date     time       size r_version r_arch r_os    package   version country ip_id

 1     1 2014-07~ 00:54:~   80589 3.1.0     x86_64 mingw32 htmltools 0.2.4   US          1

 2     2 2014-07~ 00:59:~  321767 3.1.0     x86_64 mingw32 tseries   0.10-32 US          2

 3     3 2014-07~ 00:47:~  748063 3.1.0     x86_64 linux-~ party     1.0-15  US          3

 4     4 2014-07~ 00:48:~  606104 3.1.0     x86_64 linux-~ Hmisc     3.14-4  US          3

 5     6 2014-07~ 00:48:~   77681 3.1.0     x86_64 linux-~ randomFo~ 4.6-7   US          3

 6     7 2014-07~ 00:48:~  393754 3.1.0     x86_64 linux-~ plyr      1.8.1   US          3

 7     8 2014-07~ 00:47:~   28216 3.0.2     x86_64 linux-~ whisker   0.3-2   US          5

 8    10 2014-07~ 00:15:~ 2206029 3.0.2     x86_64 linux-~ hflights  0.1     US          7

 9    11 2014-07~ 00:15:~  526858 3.0.2     x86_64 linux-~ LPCM      0.44-8  US          8

10    12 2014-07~ 00:14:~ 2351969 2.14.1    x86_64 linux-~ ggplot2   1.0.0   US          8

# ... with 95,273 more rows
| Your dedication is inspiring!

|================================================                                |  60%

| Now, use filter() to fetch all rows for which size is strictly greater than (>) 100500

| (no quotes, since size is numeric) AND r_os equals "linux-gnu". Hint: You are passing

| three arguments to filter(): the name of the dataset, the first condition, and the

| second condition.

filter(cran,size>100500,r_os=="linux-gnu")

# A tibble: 33,683 x 11

       X date      time        size r_version r_arch r_os    package version country ip_id

 1     3 2014-07-~ 00:47:13  748063 3.1.0     x86_64 linux-~ party   1.0-15  US          3

 2     4 2014-07-~ 00:48:05  606104 3.1.0     x86_64 linux-~ Hmisc   3.14-4  US          3

 3     7 2014-07-~ 00:48:35  393754 3.1.0     x86_64 linux-~ plyr    1.8.1   US          3

 4    10 2014-07-~ 00:15:35 2206029 3.0.2     x86_64 linux-~ hfligh~ 0.1     US          7

 5    11 2014-07-~ 00:15:25  526858 3.0.2     x86_64 linux-~ LPCM    0.44-8  US          8

 6    12 2014-07-~ 00:14:45 2351969 2.14.1    x86_64 linux-~ ggplot2 1.0.0   US          8

 7    14 2014-07-~ 00:15:35 3097729 3.0.2     x86_64 linux-~ Rcpp    0.9.7   VE         10

 8    15 2014-07-~ 00:14:37  568036 3.1.0     x86_64 linux-~ rJava   0.9-6   US         11

 9    16 2014-07-~ 00:15:50 1600441 3.1.0     x86_64 linux-~ RSQLite 0.11.4  US          7

10    18 2014-07-~ 00:26:59  186685 3.1.0     x86_64 linux-~ ipred   0.9-3   DE         13

# ... with 33,673 more rows
…
[1]  TRUE  TRUE FALSE  TRUE

| Keep up the great work!

|=====================================================                           |  67%

| Okay, ready to put all of this together? Use filter() to return all rows of cran for

| which r_version is NOT NA. Hint: You will need to use !is.na() as part of your second

| argument to filter().

filter(cran,!is.na(r_version))

# A tibble: 207,205 x 11

       X date     time       size r_version r_arch r_os    package   version country ip_id

 1     1 2014-07~ 00:54:~   80589 3.1.0     x86_64 mingw32 htmltools 0.2.4   US          1

 2     2 2014-07~ 00:59:~  321767 3.1.0     x86_64 mingw32 tseries   0.10-32 US          2

 3     3 2014-07~ 00:47:~  748063 3.1.0     x86_64 linux-~ party     1.0-15  US          3

 4     4 2014-07~ 00:48:~  606104 3.1.0     x86_64 linux-~ Hmisc     3.14-4  US          3

 5     5 2014-07~ 00:46:~   79825 3.0.2     x86_64 linux-~ digest    0.6.4   CA          4

 6     6 2014-07~ 00:48:~   77681 3.1.0     x86_64 linux-~ randomFo~ 4.6-7   US          3

 7     7 2014-07~ 00:48:~  393754 3.1.0     x86_64 linux-~ plyr      1.8.1   US          3

 8     8 2014-07~ 00:47:~   28216 3.0.2     x86_64 linux-~ whisker   0.3-2   US          5

 9    10 2014-07~ 00:15:~ 2206029 3.0.2     x86_64 linux-~ hflights  0.1     US          7

10    11 2014-07~ 00:15:~  526858 3.0.2     x86_64 linux-~ LPCM      0.44-8  US          8

# ... with 207,195 more rows
…
cran2<-select(cran,size:ip_id)

| Excellent work!

|===========================================================                     |  73%

| Now, to order the ROWS of cran2 so that ip_id is in ascending order (from small to

| large), type arrange(cran2, ip_id). You may want to make your console wide enough so

| that you can see ip_id, which is the last column.

arrange(cran2,ip_id)

# A tibble: 225,468 x 8

     size r_version r_arch r_os         package     version country ip_id

 1  80589 3.1.0     x86_64 mingw32      htmltools   0.2.4   US          1

 2 180562 3.0.2     x86_64 mingw32      yaml        2.1.13  US          1

 3 190120 3.1.0     i386   mingw32      babel       0.2-6   US          1

 4 321767 3.1.0     x86_64 mingw32      tseries     0.10-32 US          2

 5  52281 3.0.3     x86_64 darwin10.8.0 quadprog    1.5-5   US          2

 6 876702 3.1.0     x86_64 linux-gnu    zoo         1.7-11  US          2

 7 321764 3.0.2     x86_64 linux-gnu    tseries     0.10-32 US          2

 8 876702 3.1.0     x86_64 linux-gnu    zoo         1.7-11  US          2

 9 321768 3.1.0     x86_64 mingw32      tseries     0.10-32 US          2

10 784093 3.1.0     x86_64 linux-gnu    strucchange 1.5-0   US          2

# ... with 225,458 more rows

| Perseverance, that's the answer.

|============================================================                    |  75%

| To do the same, but in descending order, change the second argument to desc(ip_id),

| where desc() stands for 'descending'. Go ahead.

arrange(cran2,desc(ip_id))

# A tibble: 225,468 x 8

      size r_version r_arch r_os         package      version country ip_id

 1    5933 NA        NA     NA           CPE          1.4.2   CN      13859

 2  569241 3.1.0     x86_64 mingw32      multcompView 0.1-5   US      13858

 3  228444 3.1.0     x86_64 mingw32      tourr        0.5.3   NZ      13857

 4  308962 3.1.0     x86_64 darwin13.1.0 ctv          0.7-9   CN      13856

 5  950964 3.0.3     i386   mingw32      knitr        1.6     CA      13855

 6   80185 3.0.3     i386   mingw32      htmltools    0.2.4   CA      13855

 7 1431750 3.0.3     i386   mingw32      shiny        0.10.0  CA      13855

 8 2189695 3.1.0     x86_64 mingw32      RMySQL       0.9-3   US      13854

 9 4818024 3.1.0     i386   mingw32      igraph       0.7.1   US      13853

10  197495 3.1.0     x86_64 mingw32      coda         0.16-1  US      13852

# ... with 225,458 more rows
…
